<?xml version="1.0" encoding="UTF-8" standalone="no"?>
<svg
   xmlns:dc="http://purl.org/dc/elements/1.1/"
   xmlns:cc="http://creativecommons.org/ns#"
   xmlns:rdf="http://www.w3.org/1999/02/22-rdf-syntax-ns#"
   xmlns:svg="http://www.w3.org/2000/svg"
   xmlns="http://www.w3.org/2000/svg"
   xmlns:sodipodi="http://sodipodi.sourceforge.net/DTD/sodipodi-0.dtd"
   xmlns:inkscape="http://www.inkscape.org/namespaces/inkscape"
   xml:space="preserve"
   height="120"
   width="252"
   version="1.1"
   y="0px"
   x="0px"
   enable-background="new 0 0 595.275 311.111"
   viewBox="0 0 252.00001 119.99799"
   id="svg2"
   inkscape:version="0.48.4 r9939"
   sodipodi:docname="logo.svg"
   inkscape:export-filename="/home/josephk/Bureau/img/logo.png"
   inkscape:export-xdpi="90"
   inkscape:export-ydpi="90"><metadata
     id="metadata10"><rdf:RDF><cc:Work
         rdf:about=""><dc:format>image/svg+xml</dc:format><dc:type
           rdf:resource="http://purl.org/dc/dcmitype/StillImage" /><dc:title /></cc:Work></rdf:RDF></metadata><defs
     id="defs8"><filter
       color-interpolation-filters="sRGB"
       inkscape:menu-tooltip="Render in shades of gray by reducing saturation to zero"
       inkscape:menu="Color"
       height="1"
       width="1"
       y="0"
       x="0"
       inkscape:label="Desaturate"
       id="filter3138"><feColorMatrix
         values="0"
         type="saturate"
         id="feColorMatrix3140" /></filter><filter
       color-interpolation-filters="sRGB"
       inkscape:menu-tooltip="Render in shades of gray by reducing saturation to zero"
       inkscape:menu="Color"
       height="1"
       width="1"
       y="0"
       x="0"
       inkscape:label="Desaturate"
       id="filter3150"><feColorMatrix
         values="0"
         type="saturate"
         id="feColorMatrix3152" /></filter><filter
       color-interpolation-filters="sRGB"
       inkscape:menu-tooltip="Render in shades of gray by reducing saturation to zero"
       inkscape:menu="Color"
       height="1"
       width="1"
       y="0"
       x="0"
       inkscape:label="Desaturate"
       id="filter3154"><feColorMatrix
         values="0"
         type="saturate"
         id="feColorMatrix3156" /></filter><filter
       color-interpolation-filters="sRGB"
       inkscape:menu-tooltip="Render in shades of gray by reducing saturation to zero"
       inkscape:menu="Color"
       height="1"
       width="1"
       y="0"
       x="0"
       inkscape:label="Desaturate"
       id="filter3142"><feColorMatrix
         values="0"
         type="saturate"
         id="feColorMatrix3144" /></filter><filter
       color-interpolation-filters="sRGB"
       inkscape:menu-tooltip="Render in shades of gray by reducing saturation to zero"
       inkscape:menu="Color"
       height="1"
       width="1"
       y="0"
       x="0"
       inkscape:label="Desaturate"
       id="filter3158"><feColorMatrix
         values="0"
         type="saturate"
         id="feColorMatrix3160" /></filter><filter
       color-interpolation-filters="sRGB"
       inkscape:menu-tooltip="Render in shades of gray by reducing saturation to zero"
       inkscape:menu="Color"
       height="1"
       width="1"
       y="0"
       x="0"
       inkscape:label="Desaturate"
       id="filter3146"><feColorMatrix
         values="0"
         type="saturate"
         id="feColorMatrix3148" /></filter></defs><sodipodi:namedview
     pagecolor="#574778"
     bordercolor="#666666"
     borderopacity="1"
     objecttolerance="10"
     gridtolerance="10"
     guidetolerance="10"
     inkscape:pageopacity="0"
     inkscape:pageshadow="2"
     inkscape:window-width="1466"
     inkscape:window-height="854"
     id="namedview6"
     showgrid="false"
     inkscape:zoom="3.5873016"
     inkscape:cx="84.437104"
     inkscape:cy="36.575011"
     inkscape:window-x="0"
     inkscape:window-y="24"
     inkscape:window-maximized="0"
     inkscape:current-layer="svg2" /><g
     style="fill:#000000;fill-opacity:1;stroke:#ffffff;stroke-opacity:0;display:inline"
     transform="matrix(0.29090151,0,0,0.29090151,70.736148,-168.3346)"
     id="g3934-4"
     inkscape:export-filename="/home/josephk/Bureau/logo-blanc.png"
     inkscape:export-xdpi="97.71096"
     inkscape:export-ydpi="97.71096"><path
       sodipodi:nodetypes="ccccccccccc"
       inkscape:connector-curvature="0"
       id="path3926-4"
       d="m 266.05688,662.62964 c -5.06605,1.49312 2.53872,6.05651 3.03822,8.98435 1.40892,2.9493 4.36632,4.98744 6.806,7.12979 4.36237,3.28368 8.50309,7.00504 13.73127,8.87149 7.24409,4.97783 11.06985,11.74361 12.96634,24.70447 -9.08991,-2.17901 -15.96923,-2.83244 -31.39817,-12.58792 16.07761,13.45629 25.98461,19.2946 31.91959,24.61446 5.75253,6.20655 16.11417,16.71079 26.033,32.33675 0.0472,-20.28344 -8.50609,-45.21733 -19.52164,-62.22272 -10.33801,-13.68807 -24.56125,-24.25619 -40.18044,-31.18242 -1.07809,-0.41847 -2.22799,-0.72036 -3.39417,-0.64825 z"
       style="fill:#000000;fill-opacity:1;stroke:#ffffff;stroke-opacity:0;filter:url(#filter3158)" /></g><path
     id="path2885-0-6-7"
     style="fill:#000000;fill-opacity:1;stroke:none;display:inline;filter:url(#filter3154)"
     d="m 269.23963,98.459709 c -3.90986,-1.47928 -8.44333,-1.19223 -12.07906,0.90181 -4.86783,2.601451 -7.659,8.205341 -7.56709,13.624831 0.15351,5.39329 3.60697,10.56192 8.61251,12.63683 3.85868,1.77083 8.49086,1.9791 12.35073,0.0966 3.86264,-1.6951 6.713,-5.24573 7.8659,-9.26691 1.3481,-4.0818 0.6888,-8.71657 -1.6998,-12.28408 -1.73343,-2.71038 -4.46127,-4.668741 -7.48319,-5.709211 z"
     inkscape:connector-curvature="0"
     inkscape:export-filename="/home/josephk/Bureau/logo-blanc.png"
     inkscape:export-xdpi="97.71096"
     inkscape:export-ydpi="97.71096"
     transform="matrix(0.32480136,0,0,0.32480136,82.334914,47.609622)" /><path
     id="path2885-07-2-9"
     style="fill:#000000;fill-opacity:1;stroke:none;display:inline;filter:url(#filter3150)"
     d="m 255.63128,148.79693 c -3.24347,-1.22714 -7.0041,-0.98914 -10.02018,0.74811 -4.03801,2.15801 -6.35342,6.80665 -6.2771,11.30247 0.12715,4.47395 2.99205,8.76148 7.14436,10.48271 3.20101,1.46901 7.04359,1.64171 10.24549,0.0802 3.20419,-1.40618 5.56877,-4.35159 6.5251,-7.68736 1.11832,-3.38602 0.5714,-7.23081 -1.41,-10.19023 -1.43797,-2.24836 -3.70088,-3.87286 -6.20765,-4.736 z"
     inkscape:connector-curvature="0"
     inkscape:export-filename="/home/josephk/Bureau/logo-blanc.png"
     inkscape:export-xdpi="97.71096"
     inkscape:export-ydpi="97.71096"
     transform="matrix(0.33173786,0,0,0.33173786,81.02257,44.871763)" /><g
     transform="matrix(3.6801278,0.07631371,0.07968737,-3.5243251,-820.93428,1940.543)"
     style="fill:#000000;fill-opacity:1;stroke:#000000;stroke-width:0.39928606;stroke-miterlimit:4;stroke-opacity:1;stroke-dasharray:none;display:inline"
     id="g2891-9-4-3"
     inkscape:export-filename="/home/josephk/Bureau/logo-blanc.png"
     inkscape:export-xdpi="97"
     inkscape:export-ydpi="97"><path
       style="fill:#000000;fill-opacity:1;stroke:#000000;stroke-width:4.94435215;stroke-miterlimit:4;stroke-opacity:1;stroke-dasharray:none"
       d="m 674.375,-578.53125 c -2.88874,0.13382 -4.02185,1.21162 -0.4375,3.8125 16.75952,7.72369 34.50437,14.0216 49.5625,24.6875 33.69135,23.86404 55.37724,58.45628 66.46875,98.4375 6.4711,23.32625 5.50182,37.53462 9.3125,61 2.49985,14.10302 9.6008,32.64797 17.25,48.46875 10.34609,25.13897 26.03497,48.36096 41.8125,65.125 17.45317,17.33638 45.94157,36.88089 88.125,47.84375 17.51897,3.93804 27.59779,5.58745 32.28125,5.5 6.82876,1.83509 14.46693,2.06633 8.3125,-2.84375 -17.50502,-9.04305 -39.44068,-17.05625 -51.65625,-28.6875 -30.08055,-28.64143 -51.26922,-62.9643 -61.4375,-106.0625 -3.8576,-16.35056 -5.76057,-32.23727 -7.25,-45.90625 0.44893,-11.80125 1.76861,-24.10565 3.71875,-37.25 2.21078,-17.66517 14.05408,-32.18976 25.125,-43.34375 10.24538,-6.90474 18.86015,-9.99947 26.46875,-8.375 11.36409,2.56284 36.38452,7.96249 50.34375,8.34375 5.66185,-12.76922 -6.62196,-30.22377 -21.375,-42.15625 26.01322,-13.31492 50.7253,-19.35509 64.125,-23.34375 10.5249,-3.23303 -18.05733,-0.9422 -32.625,1.5 -19.55453,2.83292 -37.31898,4.61888 -54.8125,8.71875 -13.42363,-6.6494 -27.18496,-8.56114 -40.21875,-7.125 -7.20259,0.1264 -15.61695,1.66179 -21.65625,4.0625 -17.28316,6.75404 -36.20675,22.02737 -42.5625,36.5 -0.96011,1.43594 -1.96534,3.43123 -3,5.75 -5.17922,-8.28599 -11.05274,-15.78098 -17.40625,-22.03125 -30.81145,-30.79903 -73.31665,-36.0387 -115.03125,-49.71875 -3.10645,-1.69535 -9.72341,-3.0783 -13.4375,-2.90625 z M 889.25,-549.625 c 7.40203,0.003 13.28548,1.62505 13.5625,5.5 3.07504,8.29747 -15.17482,15.98417 -24.53125,18.59375 -11.46641,3.02402 -24.78893,11.34632 -33.21875,19.0625 -9.47256,6.82698 -20.87876,23.91281 -25.5625,34.3125 -17.58852,31.33288 -4.02166,-24.00528 4.5625,-36.84375 6.35575,-14.47263 25.27934,-29.77721 42.5625,-36.53125 6.30796,-2.50751 15.22297,-4.09641 22.625,-4.09375 z"
       transform="matrix(0.07900954,0.00171083,0.00178646,-0.08250237,179.0648,504.56302)"
       id="path2893-7-8-3"
       inkscape:connector-curvature="0" /></g><text
     sodipodi:linespacing="125%"
     id="text4374-19-9"
     y="74.645813"
     x="14.341031"
     style="font-size:63.46962738px;font-style:normal;font-weight:normal;line-height:125%;letter-spacing:0px;word-spacing:0px;fill:#000000;fill-opacity:1;stroke:none;display:inline;font-family:Sans"
     xml:space="preserve"
     inkscape:export-filename="/home/josephk/Bureau/logo-blanc.png"
     inkscape:export-xdpi="97.71096"
     inkscape:export-ydpi="97.71096"><tspan
       style="font-size:34.23816681px;font-style:normal;font-variant:normal;font-weight:bold;font-stretch:normal;fill:#000000;fill-opacity:1;font-family:DejaVu Sans;-inkscape-font-specification:DejaVu Sans Bold"
       y="74.645813"
       x="14.341031"
       id="tspan4376-2-0"
       sodipodi:role="line"><tspan
         style="fill:#bdbdbd;fill-opacity:1"
         id="tspan3810">Frama</tspan><tspan
         style="fill:#ffffff;fill-opacity:1"
         id="tspan3812">drive</tspan></tspan></text>
</svg>